
Running Job 1 of 1 CH4.inp
qchem CH4.inp_30540.0 /home/pierre-alex/qchem_scratch//home/pierre-alex/qchem_scratch// 0
/home/pierre-alex/qchem/exe/qcprog.exe_s CH4.inp_30540.0 /home/pierre-alex/qchem_scratch//home/pierre-alex/qchem_scratch//
                  Welcome to Q-Chem
     A Quantum Leap Into The Future Of Chemistry


 Q-Chem 5.4, Q-Chem, Inc., Pleasanton, CA (2021)

 E. Epifanovsky,  A. T. B. Gilbert,  Xintian Feng,  Joonho Lee,  Yuezhi Mao,  
 N. Mardirossian,  P. Pokhilko,  A. White,  M. Wormit,  M. P. Coons,  
 A. L. Dempwolff,  Zhengting Gan,  D. Hait,  P. R. Horn,  L. D. Jacobson,  
 I. Kaliman,  J. Kussmann,  A. W. Lange,  Ka Un Lao,  D. S. Levine,  Jie Liu,  
 S. C. McKenzie,  A. F. Morrison,  K. Nanda,  F. Plasser,  D. R. Rehn,  
 M. L. Vidal,  Zhi-Qiang You,  Ying Zhu,  B. Alam,  B. Albrecht,  
 A. Aldossary,  E. Alguire,  J. H. Andersen,  D. Barton,  K. Begam,  A. Behn,  
 Y. A. Bernard,  E. J. Berquist,  H. Burton,  A. Carreras,  K. Carter-Fenk,  
 R. Chakraborty,  A. D. Chien,  K. D. Closser,  V. Cofer-Shabica,  
 S. Dasgupta,  Jia Deng,  M. de Wergifosse,  M. Diedenhofen,  Hainam Do,  
 S. Ehlert,  Po-Tung Fang,  S. Fatehi,  Qingguo Feng,  J. Gayvert,  
 Qinghui Ge,  G. Gidofalvi,  M. Goldey,  J. Gomes,  C. Gonzalez-Espinoza,  
 S. Gulania,  A. Gunina,  M. W. D. Hanson-Heine,  P. H. P. Harbach,  
 A. W. Hauser,  M. F. Herbst,  M. Hernandez Vera,  M. Hodecker,  
 Z. C. Holden,  S. Houck,  Xunkun Huang,  Kerwin Hui,  B. C. Huynh,  
 M. Ivanov,  Hyunjun Ji,  Hanjie Jiang,  B. Kaduk,  S. Kaehler,  
 K. Khistyaev,  Jaehoon Kim,  P. Klunzinger,  Z. Koczor-Benda,  
 Joong Hoon Koh,  D. Kosenkov,  L. Koulias,  T. Kowalczyk,  C. M. Krauter,  
 K. Kue,  A. Kunitsa,  T. Kus,  A. Landau,  K. V. Lawler,  D. Lefrancois,  
 S. Lehtola,  Rain Li,  Yi-Pei Li,  Jiashu Liang,  M. Liebenthal,  
 Hung-Hsuan Lin,  You-Sheng Lin,  Fenglai Liu,  Kuan-Yu Liu,  
 M. Loipersberger,  A. Luenser,  A. Manjanath,  P. Manohar,  E. Mansoor,  
 S. F. Manzer,  Shan-Ping Mao,  A. V. Marenich,  T. Markovich,  S. Mason,  
 S. A. Maurer,  P. F. McLaughlin,  M. F. S. J. Menger,  J.-M. Mewes,  
 S. A. Mewes,  P. Morgante,  J. W. Mullinax,  T. S. Nguyen-Beck,  
 K. J. Oosterbaan,  G. Paran,  Alexander C. Paul,  Suranjan K. Paul,  
 F. Pavosevic,  Zheng Pei,  S. Prager,  E. I. Proynov,  E. Ramos,  B. Rana,  
 A. E. Rask,  A. Rettig,  R. M. Richard,  F. Rob,  E. Rossomme,  T. Scheele,  
 M. Scheurer,  M. Schneider,  N. Sergueev,  S. M. Sharada,  W. Skomorowski,  
 D. W. Small,  C. J. Stein,  Yu-Chuan Su,  E. J. Sundstrom,  Zhen Tao,  
 J. Thirman,  T. Tsuchimochi,  N. M. Tubman,  S. P. Veccham,  O. Vydrov,  
 J. Wenzel,  J. Witte,  A. Yamada,  Kun Yao,  S. Yeganeh,  S. R. Yost,  
 A. Zech,  Igor Ying Zhang,  Xing Zhang,  Yu Zhang,  D. Zuev,  
 A. Aspuru-Guzik,  A. T. Bell,  N. A. Besley,  K. B. Bravaya,  B. R. Brooks,  
 D. Casanova,  Jeng-Da Chai,  S. Coriani,  C. J. Cramer,  
 A. E. DePrince, III,  R. A. DiStasio Jr.,  A. Dreuw,  B. D. Dunietz,  
 T. R. Furlani,  W. A. Goddard III,  S. Grimme,  S. Hammes-Schiffer,  
 T. Head-Gordon,  W. J. Hehre,  Chao-Ping Hsu,  T.-C. Jagau,  Yousung Jung,  
 A. Klamt,  Jing Kong,  D. S. Lambrecht,  WanZhen Liang,  N. J. Mayhall,  
 C. W. McCurdy,  J. B. Neaton,  C. Ochsenfeld,  J. A. Parkhill,  R. Peverati,  
 V. A. Rassolov,  Yihan Shao,  L. V. Slipchenko,  T. Stauch,  R. P. Steele,  
 J. E. Subotnik,  A. J. W. Thom,  A. Tkatchenko,  D. G. Truhlar,  
 T. Van Voorhis,  T. A. Wesolowski,  K. B. Whaley,  H. L. Woodcock III,  
 P. M. Zimmerman,  S. Faraji,  P. M. W. Gill,  M. Head-Gordon,  
 J. M. Herbert,  A. I. Krylov

 Contributors to earlier versions of Q-Chem not listed above: 
 R. D. Adamson,  B. Austin,  R. Baer,  J. Baker,  G. J. O. Beran,  
 K. Brandhorst,  S. T. Brown,  E. F. C. Byrd,  A. K. Chakraborty,  
 G. K. L. Chan,  Chun-Min Chang,  Yunqing Chen,  C.-L. Cheng,  
 Siu Hung Chien,  D. M. Chipman,  D. L. Crittenden,  H. Dachsel,  
 R. J. Doerksen,  A. D. Dutoi,  R. G. Edgar,  J. Fosso-Tande,  
 L. Fusti-Molnar,  D. Ghosh,  A. Ghysels,  A. Golubeva-Zadorozhnaya,  
 J. Gonthier,  M. S. Gordon,  S. R. Gwaltney,  G. Hawkins,  J. E. Herr,  
 A. Heyden,  S. Hirata,  E. G. Hohenstein,  G. Kedziora,  F. J. Keil,  
 C. Kelley,  Jihan Kim,  R. A. King,  R. Z. Khaliullin,  P. P. Korambath,  
 W. Kurlancheek,  A. Laurent,  A. M. Lee,  M. S. Lee,  S. V. Levchenko,  
 Ching Yeh Lin,  D. Liotard,  E. Livshits,  R. C. Lochan,  I. Lotan,  
 L. A. Martinez-Martinez,  P. E. Maslen,  N. Nair,  D. P. O'Neill,  
 D. Neuhauser,  E. Neuscamman,  C. M. Oana,  R. Olivares-Amaya,  R. Olson,  
 T. M. Perrine,  B. Peters,  P. A. Pieniazek,  A. Prociuk,  Y. M. Rhee,  
 J. Ritchie,  M. A. Rohrdanz,  E. Rosta,  N. J. Russ,  H. F. Schaefer III,  
 M. W. Schmidt,  N. E. Schultz,  S. Sharma,  N. Shenvi,  C. D. Sherrill,  
 A. C. Simmonett,  A. Sodt,  T. Stein,  D. Stuck,  K. S. Thanthiriwatte,  
 V. Vanovschi,  L. Vogt,  Tao Wang,  A. Warshel,  M. A. Watson,  
 C. F. Williams,  Q. Wu,  X. Xu,  Jun Yang,  W. Zhang,  Yan Zhao

 Please cite Q-Chem as follows:
 Y. Shao et al., Mol. Phys. 113, 184-215 (2015)
 DOI: 10.1080/00268976.2014.952696

 Q-Chem 5.4.0 for Intel X86 EM64T Linux

 Parts of Q-Chem use Armadillo 9.800.1 (Horizon Scraper).
 http://arma.sourceforge.net/

 Q-Chem begins on Mon Jul 12 09:45:10 2021  

 Host: 
0

     Scratch files written to /home/pierre-alex/qchem_scratch//home/pierre-alex/qchem_scratch///
 May1621 |scratch|qcdevops|jenkins|workspace|build_RNUM 8092   
 Processing $rem in /home/pierre-alex/qchem/config/preferences:
 Processing $rem in /home/pierre-alex/.qchemrc:

 Checking the input file for inconsistencies... 	...done.

--------------------------------------------------------------
User input:
--------------------------------------------------------------
$molecule
0 1
C   -2.4375532   -0.6448445    0.5409152
H   -1.3281524   -0.6448462    0.5409139
H   -2.8073514    0.3117001    0.9640486
H   -2.8073540   -1.4895598    1.1577407
H   -2.8073549   -0.7566721   -0.4990422
$end

$rem
BASIS  =  6-31G**
GUI  =  2
JOB_TYPE  =  Frequency
METHOD  =  B3LYP
SCF_CONVERGENCE  =  8
$end

--------------------------------------------------------------
 Atom   1: ( -0.0000000105, -0.0000000154, -0.0000000124)
         ->( -0.0000000114, -0.0000000129, -0.0000000139)
 Atom   1: ( -0.0000000114, -0.0000000129, -0.0000000139)
         ->(  0.0000000008,  0.0000000005, -0.0000000127)
 Atom   1: (  0.0000000008,  0.0000000005, -0.0000000127)
         ->(  0.0000000006,  0.0000000066, -0.0000000067)
 Atom   1: (  0.0000000006,  0.0000000066, -0.0000000067)
         ->(  0.0000000037,  0.0000000030, -0.0000000001)
 Atom   1: (  0.0000000037,  0.0000000030, -0.0000000001)
         ->(  0.0000000018, -0.0000000003, -0.0000000015)
 Atom   3: (  0.6405128674, -0.6405127920,  0.6405129001)
         ->(  0.6405128749, -0.6405128674,  0.6405127920)
 Atom   5: ( -0.6405128046, -0.6405128706, -0.6405128898)
         ->( -0.6405127920, -0.6405128749, -0.6405128674)
 Atom   2: ( -0.6405128674,  0.6405127920,  0.6405128749)
         ->( -0.6405128711,  0.6405128297,  0.6405128334)
 Atom   4: (  0.6405128674,  0.6405129630, -0.6405128109)
         ->(  0.6405128297,  0.6405128334, -0.6405128711)
 Atom   2: ( -0.6405128711,  0.6405128297,  0.6405128334)
         ->( -0.6405128504,  0.6405128316,  0.6405128523)
 Atom   2: ( -0.6405128504,  0.6405128316,  0.6405128523)
         ->( -0.6405128410,  0.6405128410,  0.6405128523)
 Atom   2: ( -0.6405128410,  0.6405128410,  0.6405128523)
         ->( -0.6405128466,  0.6405128410,  0.6405128466)
 Atom   2: ( -0.6405128466,  0.6405128410,  0.6405128466)
         ->( -0.6405128466,  0.6405128438,  0.6405128438)
 ----------------------------------------------------------------
             Standard Nuclear Orientation (Angstroms)
    I     Atom           X                Y                Z
 ----------------------------------------------------------------
    1      C       0.0000000018    -0.0000000003    -0.0000000015
    2      H      -0.6405128466     0.6405128438     0.6405128438
    3      H       0.6405128749    -0.6405128674     0.6405127920
    4      H       0.6405128297     0.6405128334    -0.6405128711
    5      H      -0.6405127920    -0.6405128749    -0.6405128674
 ----------------------------------------------------------------
 Molecular Point Group                 Td    NOp = 24
 Largest Abelian Subgroup              D2    NOp =  4
 Nuclear Repulsion Energy =          13.20043586 hartrees
 There are        5 alpha and        5 beta electrons
 Requested basis set is 6-31G(d,p)
 There are 16 shells and 35 basis functions

 Total QAlloc Memory Limit   4000 MB
 Mega-Array Size       188 MB
 MEM_STATIC part       192 MB

                       Distance Matrix (Angstroms)
             C (  1)   H (  2)   H (  3)   H (  4)
   H (  2)  1.109401
   H (  3)  1.109401  1.811644
   H (  4)  1.109401  1.811644  1.811644
   H (  5)  1.109401  1.811644  1.811644  1.811644
 
 A cutoff of  1.0D-11 yielded    136 shell pairs
 There are       669 function pairs
 Smallest overlap matrix eigenvalue = 1.88E-02
 Guess from superposition of atomic densities
 Warning:  Energy on first SCF cycle will be non-variational
 SAD guess density has 10.000000 electrons

 -----------------------------------------------------------------------
  General SCF calculation program by
  Eric Jon Sundstrom, Paul Horn, Yuezhi Mao, Dmitri Zuev, Alec White,
  David Stuck, Shaama M.S., Shane Yost, Joonho Lee, David Small,
  Daniel Levine, Susi Lehtola, Hugh Burton, Evgeny Epifanovsky,
  Bang C. Huynh
 -----------------------------------------------------------------------
 Exchange:     0.2000 Hartree-Fock + 0.0800 Slater + 0.7200 B88
 Correlation:  0.1900 VWN1RPA + 0.8100 LYP
 Using SG-1 standard quadrature grid
 A restricted SCF calculation will be
 performed using DIIS
 SCF converges when DIIS error is below 1.0e-08
 ---------------------------------------
  Cycle       Energy         DIIS error
 ---------------------------------------
    1     -40.4137259967      9.15e-02  
    2     -40.4712452602      1.79e-02  
    3     -40.4683571578      1.83e-02  
    4     -40.5233040284      8.08e-05  
    5     -40.5233049085      2.30e-05  
    6     -40.5233049909      3.61e-07  
    7     -40.5233049909      5.06e-08  
    8     -40.5233049909      1.68e-09  Convergence criterion met
 ---------------------------------------
 SCF time:   CPU 0.52s  wall 1.00s 
 SCF   energy in the final basis set =      -40.5233049909
 Total energy in the final basis set =      -40.5233049909
 
 --------------------------------------------------------------
             Orbital Energies (a.u.) and Symmetries
 --------------------------------------------------------------
 
 Alpha MOs, Restricted
 -- Occupied --                  
-10.174  -0.685  -0.385  -0.385  -0.385
  1 A1    2 A1    1 T2    1 T2    1 T2                                         
 -- Virtual --                   
  0.114   0.171   0.171   0.171   0.533   0.533   0.533   0.865
  3 A1    2 T2    2 T2    2 T2    3 T2    3 T2    3 T2    4 T2                 
  0.865   0.865   0.900   1.095   1.366   1.366   2.027   2.027
  4 T2    4 T2    4 A1    5 A1    1 E     1 E     5 T2    5 T2                 
  2.027   2.042   2.042   2.042   2.605   2.605   2.605   2.871
  5 T2    1 T1    1 T1    1 T1    6 T2    6 T2    6 T2    2 E                  
  2.871   3.061   3.387   3.387   3.387   4.418
  2 E     6 A1    7 T2    7 T2    7 T2    7 A1                                 
 
 Beta MOs, Restricted
 -- Occupied --                  
-10.174  -0.685  -0.385  -0.385  -0.385
  1 A1    2 A1    1 T2    1 T2    1 T2                                         
 -- Virtual --                   
  0.114   0.171   0.171   0.171   0.533   0.533   0.533   0.865
  3 A1    2 T2    2 T2    2 T2    3 T2    3 T2    3 T2    4 T2                 
  0.865   0.865   0.900   1.095   1.366   1.366   2.027   2.027
  4 T2    4 T2    4 A1    5 A1    1 E     1 E     5 T2    5 T2                 
  2.027   2.042   2.042   2.042   2.605   2.605   2.605   2.871
  5 T2    1 T1    1 T1    1 T1    6 T2    6 T2    6 T2    2 E                  
  2.871   3.061   3.387   3.387   3.387   4.418
  2 E     6 A1    7 T2    7 T2    7 T2    7 A1                                 
 --------------------------------------------------------------
 
          Ground-State Mulliken Net Atomic Charges

     Atom                 Charge (a.u.)
  ----------------------------------------
      1 C                    -0.465462
      2 H                     0.116365
      3 H                     0.116365
      4 H                     0.116365
      5 H                     0.116365
  ----------------------------------------
  Sum of atomic charges =     0.000000

 -----------------------------------------------------------------
                    Cartesian Multipole Moments
 -----------------------------------------------------------------
    Charge (ESU x 10^10)
                 0.0000
    Dipole Moment (Debye)
         X       0.0000      Y      -0.0000      Z      -0.0000
       Tot       0.0000
    Quadrupole Moments (Debye-Ang)
        XX      -8.2917     XY      -0.0000     YY      -8.2917
        XZ      -0.0000     YZ       0.0000     ZZ      -8.2917
    Octopole Moments (Debye-Ang^2)
       XXX      -0.0000    XXY      -0.0000    XYY       0.0000
       YYY      -0.0000    XXZ       0.0000    XYZ      -0.7017
       YYZ      -0.0000    XZZ      -0.0000    YZZ       0.0000
       ZZZ      -0.0000
    Hexadecapole Moments (Debye-Ang^3)
      XXXX     -16.2694   XXXY       0.0000   XXYY      -4.9374
      XYYY       0.0000   YYYY     -16.2694   XXXZ       0.0000
      XXYZ      -0.0000   XYYZ       0.0000   YYYZ      -0.0000
      XXZZ      -4.9374   XYZZ       0.0000   YYZZ      -4.9374
      XZZZ       0.0000   YZZZ      -0.0000   ZZZZ     -16.2694
 -----------------------------------------------------------------
 Calculating MO derivatives via CPSCF
    1     0    18    0.0351584  
    2     0    18    0.0024344  
    3     0    18    0.0000891  
    4     3    15    0.0000021  
    5    18     0    0.0000001  Converged
 Time for AOints: 0.0 s (CPU) 0.0 s (wall)
 ------------------------------------------------------------------------------
                     AOints        : Timing summary (seconds)
 ------------------------------------------------------------------------------
     job step          cpu (% of tot)      sys (% of tot)     wall (% of tot)
 ------------------------------------------------------------------------------
  AOints            0.4846E-01 ( 3.4)   0.0000E+00 ( 0.0)   0.4866E-01 ( 3.4)
 ------------------------------------------------------------------------------
   Grand Totals     0.1414E+01          0.5000E-05          0.1447E+01
 ------------------------------------------------------------------------------
 Polarizability Matrix (a.u.)
            1           2           3
    1 -13.0763752   0.0000003   0.0000002
    2   0.0000003 -13.0763755  -0.0000002
    3   0.0000002  -0.0000002 -13.0763754
 Calculating analytic Hessian of the SCF energy
 
 Direct stationary perturbation theory relativistic correction:
 
 rels  =       0.008710037370
 relv  =      -0.034199024054
 rel2e =       0.011364194988
 E_rel =      -0.014124791697
 
 **********************************************************************
 **                                                                  **
 **                       VIBRATIONAL ANALYSIS                       **
 **                       --------------------                       **
 **                                                                  **
 **        VIBRATIONAL FREQUENCIES (CM**-1) AND NORMAL MODES         **
 **     FORCE CONSTANTS (mDYN/ANGSTROM) AND REDUCED MASSES (AMU)     **
 **                  INFRARED INTENSITIES (KM/MOL)                   **
 **                                                                  **
 **********************************************************************
 

 Mode:                 1                      2                      3
 Frequency:      1391.00                1391.00                1391.00
 Force Cnst:      1.3440                 1.3440                 1.3440
 Red. Mass:       1.1789                 1.1789                 1.1789
 IR Active:          YES                    YES                    YES
 IR Intens:       12.156                 12.156                 12.156
 Raman Active:       YES                    YES                    YES
               X      Y      Z        X      Y      Z        X      Y      Z
 C         -0.072 -0.102  0.002   -0.082  0.056 -0.075    0.061 -0.045 -0.099
 H          0.400  0.442 -0.063    0.280 -0.155  0.482    0.089 -0.164  0.099
 H          0.408  0.433  0.049   -0.001  0.126 -0.033   -0.282  0.206  0.493
 H          0.020  0.165  0.317    0.489 -0.179  0.273   -0.079  0.432  0.267
 H          0.028  0.174 -0.331    0.208 -0.461  0.176   -0.449  0.062  0.325
 TransDip   0.064  0.091 -0.002    0.073 -0.050  0.068   -0.054  0.040  0.089

 Mode:                 4                      5                      6
 Frequency:      1592.39                1592.39                2903.64
 Force Cnst:      1.5057                 1.5057                 5.0064
 Red. Mass:       1.0078                 1.0078                 1.0078
 IR Active:          NO                     NO                     NO 
 IR Intens:        0.000                  0.000                  0.000
 Raman Active:       YES                    YES                    YES
               X      Y      Z        X      Y      Z        X      Y      Z
 C         -0.000 -0.000 -0.000   -0.000  0.000 -0.000    0.000 -0.000 -0.000
 H          0.382  0.316  0.066    0.144 -0.259  0.403   -0.289  0.289  0.289
 H         -0.382 -0.316  0.066   -0.144  0.259  0.403    0.289 -0.289  0.289
 H         -0.382  0.316 -0.066   -0.144 -0.259 -0.403    0.289  0.289 -0.289
 H          0.382 -0.316 -0.066    0.144  0.259 -0.403   -0.289 -0.289 -0.289
 TransDip  -0.000 -0.000  0.000    0.000 -0.000 -0.000    0.000 -0.000 -0.000

 Mode:                 7                      8                      9
 Frequency:      3008.96                3008.96                3008.96
 Force Cnst:      5.8770                 5.8770                 5.8770
 Red. Mass:       1.1017                 1.1017                 1.1017
 IR Active:          YES                    YES                    YES
 IR Intens:       28.200                 28.200                 28.200
 Raman Active:       YES                    YES                    YES
               X      Y      Z        X      Y      Z        X      Y      Z
 C         -0.079 -0.021 -0.043    0.048 -0.034 -0.072   -0.000  0.083 -0.040
 H          0.034 -0.054 -0.059   -0.477  0.479  0.472    0.139 -0.123 -0.147
 H          0.306 -0.326  0.314   -0.022  0.025 -0.046    0.392 -0.375  0.384
 H          0.165  0.177 -0.189   -0.261 -0.277  0.256   -0.391 -0.374  0.383
 H          0.437  0.449  0.445    0.194  0.177  0.170   -0.138 -0.121 -0.146
 TransDip  -0.146 -0.038 -0.079    0.088 -0.063 -0.132   -0.000  0.154 -0.073

 STANDARD THERMODYNAMIC QUANTITIES AT   298.15 K  AND     1.00 ATM

   This Molecule has  0 Imaginary Frequencies
   Zero point vibrational energy:       27.574 kcal/mol

   Atom    1 Element C  Has Mass   12.00000
   Atom    2 Element H  Has Mass    1.00783
   Atom    3 Element H  Has Mass    1.00783
   Atom    4 Element H  Has Mass    1.00783
   Atom    5 Element H  Has Mass    1.00783
   Molecular Mass:    16.031320 amu
   Principal axes and moments of inertia in amu*Bohr^2:
                             1           2           3
    Eigenvalues --       11.81220    11.81220    11.81220
          X              -0.44108    -0.07933     0.89395
          Y               0.78472    -0.51744     0.34127
          Z               0.43550     0.85203     0.29049
   Rotational Symmetry Number is  12
   The Molecule is a Spherical Top
   Translational Enthalpy:        0.889 kcal/mol
   Rotational Enthalpy:           0.889 kcal/mol
   Vibrational Enthalpy:         27.593 kcal/mol
   gas constant (RT):             0.592 kcal/mol
   Translational Entropy:        34.261  cal/mol.K
   Rotational Entropy:           10.225  cal/mol.K
   Vibrational Entropy:           0.072  cal/mol.K

   Total Enthalpy:               29.963 kcal/mol
   Total Entropy:                44.558  cal/mol.K
 Total job time:  3.64s(wall), 3.49s(cpu) 
 Mon Jul 12 09:45:14 2021

        *************************************************************
        *                                                           *
        *  Thank you very much for using Q-Chem.  Have a nice day.  *
        *                                                           *
        *************************************************************


